…
#-----------------------------------------------------

```
#Data Exploration:

By simply typing the name of the data set we can see this table has data in tidy format and there are thousands of rows.

```{
# Exploring train data set

train %>% as_tibble()

```
```{
# A tibble: 8,100,065 x 6
   userId movieId rating timestamp title                   genres                 
    <int>   <dbl>  <dbl>     <int> <chr>                   <chr>                  
 1      1     122      5 838985046 Boomerang (1992)        Comedy|Romance         
 2      1     292      5 838983421 Outbreak (1995)         Action|Drama|Sci-Fi|Th~
 3      1     316      5 838983392 Stargate (1994)         Action|Adventure|Sci-Fi
 4      1     329      5 838983392 Star Trek: Generations~ Action|Adventure|Drama~
 5      1     355      5 838984474 Flintstones, The (1994) Children|Comedy|Fantasy
 6      1     356      5 838983653 Forrest Gump (1994)     Comedy|Drama|Romance|W~
 7      1     362      5 838984885 Jungle Book, The (1994) Adventure|Children|Rom~
 8      1     364      5 838983707 Lion King, The (1994)   Adventure|Animation|Ch~
 9      1     370      5 838984596 Naked Gun 33 1/3: The ~ Action|Comedy          
10      1     377      5 838983834 Speed (1994)            Action|Romance|Thriller
# ... with 8,100,055 more rows
…
